{
   "type"       : "postgres",
   "host"       : "localhost",
   "port"       : 5432,
   "username"   : "clx",
   "password"   : "the_password",
   "database"   : "ourico_test",
   "synchronize": false,
   "logging"    : true,
   "cache"      : false,
   "entities"   : [
      "out/db/models.js"
   ]
}
